{
    "production": {
        "host": "188.166.159.168",
        "scheme": "http",
        "port": 2500,
        "jaeger": {
            "host": "localhost",
            "port": 6832
        },
        "services": [
            { "name": "auth", "url": "http://188.166.159.168:2500/api/v1"},
            { "name": "shop", "url": "http://188.166.159.168:2900/api/v1"},
            { "name": "housing", "url": "http://188.166.159.168:2700/api/v1"},
            { "name": "account", "url": "http://188.166.159.168:2600/api/v1"},
            { "name": "architecture", "url": "http://188.166.159.168:2800/api/v1"},
            { "name": "notification", "url": "http://188.166.159.168:2300/api/v1"}
        ]
    },
    "test": {
        "host": "localhost",
        "scheme": "http",
        "port": 2500,
        "jaeger": {
            "host": "localhost",
            "port": 6832
        },
        "services": [
            { "name": "auth", "url": "http://localhost:2500/api/v1"},
            { "name": "shop", "url": "http://localhost:2900/api/v1"},
            { "name": "housing", "url": "http://localhost:2700/api/v1"},
            { "name": "account", "url": "http://localhost:2600/api/v1"},
            { "name": "architecture", "url": "http://localhost:2800/api/v1"},
            { "name": "notification", "url": "http://localhost:2800/api/v1"}
        ]
    }
}